…
::: {.cell paged.print="false"}
``` {.r .cell-code}
library(dplyr, warn.conflicts = FALSE)
library(ggplot2)

runs <- runs_info()

runs
## # A tibble: 21 × 15
##    label                tags  marked flags…¹ scala…² opera…³ started            
##    <chr>                <lis> <lgl>  <chr>     <dbl> <chr>   <dttm>             
##  1 family=gaussian spa… <chr> FALSE  gaussi…    14.6 train.R 2023-01-24 21:24:19
##  2 family=gaussian spa… <chr> FALSE  gaussi…    14.6 train.R 2023-01-24 21:24:19
##  3 family=gaussian spa… <chr> FALSE  gaussi…    14.5 train.R 2023-01-24 21:24:18
##  4 family=gaussian spa… <chr> FALSE  gaussi…    14.2 train.R 2023-01-24 21:24:18
##  5 family=gaussian spa… <chr> FALSE  gaussi…    12.4 train.R 2023-01-24 21:24:17
##  6 family=symmetric sp… <chr> FALSE  symmet…    15.0 train.R 2023-01-24 21:24:16
##  7 family=symmetric sp… <chr> FALSE  symmet…    14.9 train.R 2023-01-24 21:24:16
##  8 family=symmetric sp… <chr> FALSE  symmet…    14.8 train.R 2023-01-24 21:24:15
##  9 family=symmetric sp… <chr> FALSE  symmet…    14.6 train.R 2023-01-24 21:24:15
## 10 family=symmetric sp… <chr> FALSE  symmet…    12.6 train.R 2023-01-24 21:24:14
## # … with 11 more rows, 10 more variables: flags$span <dbl>, scalars$mse <dbl>,
## #   stopped <dttm>, comments <list>, status <chr>, exit_status <int>,
## #   deps <list>, project_dir <chr>, dir <chr>, id <chr>, and abbreviated
## #   variable names ¹​flags$family, ²​scalars$rmse, ³​operation
…
