…
`runs_info()` returns the last value for each scalar. The full history
of scalars emitted is available with `runs_scalars()`.

``` r
all_scalars <- runs_scalars(1)

all_scalars |>
  dplyr::arrange(step)
## # A tibble: 64 × 5
##    run                              path       tag            value  step
##    <chr>                            <chr>      <chr>          <dbl> <dbl>
##  1 27be6d49aa384099aa325d0e25f1c1b5 <NA>       test_loss      0.366     0
##  2 27be6d49aa384099aa325d0e25f1c1b5 <NA>       test_accuracy  0.869     0
##  3 27be6d49aa384099aa325d0e25f1c1b5 validation epoch_loss     0.438     0
##  4 27be6d49aa384099aa325d0e25f1c1b5 validation epoch_accuracy 0.848     0
##  5 27be6d49aa384099aa325d0e25f1c1b5 train      epoch_loss     0.533     0
##  6 27be6d49aa384099aa325d0e25f1c1b5 train      epoch_accuracy 0.817     0
##  7 27be6d49aa384099aa325d0e25f1c1b5 validation epoch_loss     0.406     1
##  8 27be6d49aa384099aa325d0e25f1c1b5 validation epoch_accuracy 0.859     1
##  9 27be6d49aa384099aa325d0e25f1c1b5 train      epoch_loss     0.407     1
## 10 27be6d49aa384099aa325d0e25f1c1b5 train      epoch_accuracy 0.855     1
## # … with 54 more rows
```
…
