…
`runs_info()` returns the last value for each scalar. The full history
of scalars emitted is available with `runs_scalars()`.

::: {.cell paged.print="false"}
``` {.r .cell-code}
scalars <- runs_scalars(1)
scalars
## # A tibble: 80 × 5
##    run                              path  tag            value  step
##    <chr>                            <chr> <chr>          <dbl> <dbl>
##  1 3d5df8a345364a319ba95509cb798adc <NA>  test-error    0.0428     1
##  2 3d5df8a345364a319ba95509cb798adc <NA>  test-logloss  0.543      1
##  3 3d5df8a345364a319ba95509cb798adc <NA>  train-error   0.0465     1
##  4 3d5df8a345364a319ba95509cb798adc <NA>  train-logloss 0.545      1
##  5 3d5df8a345364a319ba95509cb798adc <NA>  test-error    0.0403     2
##  6 3d5df8a345364a319ba95509cb798adc <NA>  test-logloss  0.440      2
##  7 3d5df8a345364a319ba95509cb798adc <NA>  train-error   0.0416     2
##  8 3d5df8a345364a319ba95509cb798adc <NA>  train-logloss 0.442      2
##  9 3d5df8a345364a319ba95509cb798adc <NA>  test-error    0.0248     3
## 10 3d5df8a345364a319ba95509cb798adc <NA>  test-logloss  0.368      3
## # … with 70 more rows
```
…
