Introduction to Guild AI for R • guildai
…
guild_run("train.R", echo = FALSE, flags = list(
  span = seq(.3, 1.5, length.out = 5),
  family = c("symmetric", "gaussian")
))

library(dplyr, warn.conflicts = FALSE)
library(ggplot2)

runs <- runs_info()

runs
## # A tibble: 21 × 15
##    label                tags  marked flags…¹ scala…² opera…³ started            
##    <chr>                <lis> <lgl>  <chr>     <dbl> <chr>   <dttm>             
##  1 family=gaussian spa… <chr> FALSE  gaussi…    14.6 train.R 2023-02-28 11:08:56
##  2 family=gaussian spa… <chr> FALSE  gaussi…    14.6 train.R 2023-02-28 11:08:56
##  3 family=gaussian spa… <chr> FALSE  gaussi…    14.5 train.R 2023-02-28 11:08:55
##  4 family=gaussian spa… <chr> FALSE  gaussi…    14.2 train.R 2023-02-28 11:08:55
##  5 family=gaussian spa… <chr> FALSE  gaussi…    12.4 train.R 2023-02-28 11:08:54
##  6 family=symmetric sp… <chr> FALSE  symmet…    15.0 train.R 2023-02-28 11:08:54
##  7 family=symmetric sp… <chr> FALSE  symmet…    14.9 train.R 2023-02-28 11:08:53
##  8 family=symmetric sp… <chr> FALSE  symmet…    14.8 train.R 2023-02-28 11:08:52
##  9 family=symmetric sp… <chr> FALSE  symmet…    14.6 train.R 2023-02-28 11:08:52
## 10 family=symmetric sp… <chr> FALSE  symmet…    12.6 train.R 2023-02-28 11:08:51
## # … with 11 more rows, 10 more variables: flags$span <dbl>, scalars$mse <dbl>,
## #   stopped <dttm>, comments <list>, status <chr>, exit_status <int>,
## #   deps <list>, project_dir <chr>, dir <chr>, id <chr>, and abbreviated
## #   variable names ¹​flags$family, ²​scalars$rmse, ³​operation
…
